# Blender MTL File: 'None'
# Material Count: 12

newmtl BrickOldRounded0080_15_S_1_
Ns 96.078431
Ka 1.000000 1.000000 1.000000
Kd 0.640000 0.640000 0.640000
Ks 0.500000 0.500000 0.500000
Ke 0.000000 0.000000 0.000000
Ni -1.000000
d 1.000000
illum 2
map_Kd model\\BrickOldRounded0080_15_S_1_.jpg

newmtl BrickOldRounded0080_15_S_1__1
Ns 96.078431
Ka 1.000000 1.000000 1.000000
Kd 0.640000 0.640000 0.640000
Ks 0.500000 0.500000 0.500000
Ke 0.000000 0.000000 0.000000
Ni -1.000000
d 1.000000
illum 2
map_Kd model\\BrickOldRounded0080_15_S_1__1.jpg

newmtl BrickOldSharp0184_17_S_1_
Ns 96.078431
Ka 1.000000 1.000000 1.000000
Kd 0.640000 0.640000 0.640000
Ks 0.500000 0.500000 0.500000
Ke 0.000000 0.000000 0.000000
Ni -1.000000
d 1.000000
illum 2
map_Kd model\\BrickOldSharp0184_17_S_1_.jpg

newmtl BrickSmallPlaster0011_3_S_1_
Ns 96.078431
Ka 1.000000 1.000000 1.000000
Kd 0.640000 0.640000 0.640000
Ks 0.500000 0.500000 0.500000
Ke 0.000000 0.000000 0.000000
Ni -1.000000
d 1.000000
illum 2
map_Kd model\\BrickSmallPlaster0011_3_S_1_.jpg

newmtl BrickSmallPlaster0011_3_S_1__2
Ns 96.078431
Ka 1.000000 1.000000 1.000000
Kd 0.640000 0.640000 0.640000
Ks 0.500000 0.500000 0.500000
Ke 0.000000 0.000000 0.000000
Ni -1.000000
d 1.000000
illum 2
map_Kd model\\BrickSmallPlaster0011_3_S_1__2.jpg

newmtl LoamWalls0041_1_S_1_
Ns 96.078431
Ka 1.000000 1.000000 1.000000
Kd 0.640000 0.640000 0.640000
Ks 0.500000 0.500000 0.500000
Ke 0.000000 0.000000 0.000000
Ni -1.000000
d 1.000000
illum 2
map_Kd model\\LoamWalls0041_1_S_1_.jpg

newmtl LoamWalls0041_1_S_1__0
Ns 96.078431
Ka 1.000000 1.000000 1.000000
Kd 0.640000 0.640000 0.640000
Ks 0.500000 0.500000 0.500000
Ke 0.000000 0.000000 0.000000
Ni -1.000000
d 1.000000
illum 2
map_Kd model\\LoamWalls0041_1_S_1__0.jpg

newmtl Material
Ns 96.078431
Ka 1.000000 1.000000 1.000000
Kd 0.640000 0.640000 0.640000
Ks 0.500000 0.500000 0.500000
Ke 0.000000 0.000000 0.000000
Ni 1.000000
d 1.000000
illum 2

newmtl PlanksOld0244_7_S_1_
Ns 96.078431
Ka 1.000000 1.000000 1.000000
Kd 0.640000 0.640000 0.640000
Ks 0.500000 0.500000 0.500000
Ke 0.000000 0.000000 0.000000
Ni -1.000000
d 1.000000
illum 2
map_Kd model\\PlanksOld0244_7_S_1_.jpg

newmtl Thatched0018_1_S_1_
Ns 96.078431
Ka 1.000000 1.000000 1.000000
Kd 0.640000 0.640000 0.640000
Ks 0.500000 0.500000 0.500000
Ke 0.000000 0.000000 0.000000
Ni -1.000000
d 1.000000
illum 2
map_Kd model\\Thatched0018_1_S_1_.jpg

newmtl WoodStudded0029_1_S_1_
Ns 96.078431
Ka 1.000000 1.000000 1.000000
Kd 0.640000 0.640000 0.640000
Ks 0.500000 0.500000 0.500000
Ke 0.000000 0.000000 0.000000
Ni -1.000000
d 1.000000
illum 2
map_Kd model\\WoodStudded0029_1_S_1_.jpg

newmtl material
Ns 96.078431
Ka 1.000000 1.000000 1.000000
Kd 0.640000 0.640000 0.640000
Ks 0.500000 0.500000 0.500000
Ke 0.000000 0.000000 0.000000
Ni -1.000000
d 1.000000
illum 2
map_Kd model\\texture.png
